Homework 5 - Heart Disease Modeling
…
2.1 Quick EDA/Data Preparation

2.1.1 Read in heart.csv. Check on missingness and summarize the data, especially with respect to the variable relationships to HeartDisease.

First we will read the data set into R, and call the data frame heart_df.

heart_df <- read_csv("https://www4.stat.ncsu.edu/~online/datasets/heart.csv", 
                     show_col_types = FALSE)

heart_df

# A tibble: 918 × 12
     Age Sex   ChestPainType RestingBP Cholesterol FastingBS RestingECG MaxHR
   <dbl> <chr> <chr>             <dbl>       <dbl>     <dbl> <chr>      <dbl>
 1    40 M     ATA                 140         289         0 Normal       172
 2    49 F     NAP                 160         180         0 Normal       156
 3    37 M     ATA                 130         283         0 ST            98
 4    48 F     ASY                 138         214         0 Normal       108
 5    54 M     NAP                 150         195         0 Normal       122
 6    39 M     NAP                 120         339         0 Normal       170
 7    45 F     ATA                 130         237         0 Normal       170
 8    54 M     ATA                 110         208         0 Normal       142
 9    37 M     ASY                 140         207         0 Normal       130
10    48 F     ATA                 120         284         0 Normal       120
# ℹ 908 more rows
# ℹ 4 more variables: ExerciseAngina <chr>, Oldpeak <dbl>, ST_Slope <chr>,
#   HeartDisease <dbl>
…
The histograms shows that the “0” value in RestingBP is an outlier, and that it is the only one. The remaining RestingBP data models a fairly normal distribution in both subgroups of HeartDisease. There appears to be a greater PT density in the 140+ Resting PB range “Heart Disease” HeartDisease group. Because there is only one outlier, it would be reasonable to remove it or replace the value with the mean of the remaining RestingBP values. RestingBP appears to be a suitable variable for prediction modeling.

adjusted_heart_df <- heart_df |>
  filter(RestingBP != 0)

adjusted_heart_df

# A tibble: 917 × 12
     Age Sex   ChestPainType RestingBP Cholesterol FastingBS RestingECG MaxHR
   <dbl> <chr> <chr>             <dbl>       <dbl>     <dbl> <chr>      <dbl>
 1    40 M     ATA                 140         289         0 Normal       172
 2    49 F     NAP                 160         180         0 Normal       156
 3    37 M     ATA                 130         283         0 ST            98
 4    48 F     ASY                 138         214         0 Normal       108
 5    54 M     NAP                 150         195         0 Normal       122
 6    39 M     NAP                 120         339         0 Normal       170
 7    45 F     ATA                 130         237         0 Normal       170
 8    54 M     ATA                 110         208         0 Normal       142
 9    37 M     ASY                 140         207         0 Normal       130
10    48 F     ATA                 120         284         0 Normal       120
# ℹ 907 more rows
# ℹ 4 more variables: ExerciseAngina <chr>, Oldpeak <dbl>, ST_Slope <chr>,
#   HeartDisease <dbl>
…
Review of the HeartDisease sub-group box and whisker plots shows that the Cholesterol values of “0” greatly affect the IQR of the “Heart Disease” subgroup while having minimal to no effect on the “Normal” subgroup. The Cholesterol values of “0” do not appear to have an affect on the median values of either subgroup as they both are near the overall group median of 223.

The information provided by the three summary observations taken with respect to HeartDisease indicate that replacing the Cholesterol variable’s values of “0” with the mean of the remaining Cholesterol values is reasonable after removing the outlying values that are greater than or equal to 450.

First, we will create an adjsuted data frame that excludes the Cholesterol outliers that are greater than or equal to 450.

adjusted_heart_df <- heart_df |>
  filter(Cholesterol <= 450)

adjusted_heart_df

# A tibble: 910 × 12
     Age Sex   ChestPainType RestingBP Cholesterol FastingBS RestingECG MaxHR
   <dbl> <chr> <chr>             <dbl>       <dbl>     <dbl> <chr>      <dbl>
 1    40 M     ATA                 140         289         0 Normal       172
 2    49 F     NAP                 160         180         0 Normal       156
 3    37 M     ATA                 130         283         0 ST            98
 4    48 F     ASY                 138         214         0 Normal       108
 5    54 M     NAP                 150         195         0 Normal       122
 6    39 M     NAP                 120         339         0 Normal       170
 7    45 F     ATA                 130         237         0 Normal       170
 8    54 M     ATA                 110         208         0 Normal       142
 9    37 M     ASY                 140         207         0 Normal       130
10    48 F     ATA                 120         284         0 Normal       120
# ℹ 900 more rows
# ℹ 4 more variables: ExerciseAngina <chr>, Oldpeak <dbl>, ST_Slope <chr>,
#   HeartDisease <dbl>
…
Set up dummy variables for ExerciseAngina, ChestPainType, and RestingECG using dummyVars() and predict(). Then we will convert the resulting table into a data frame for use in our predictive models.

# Create the dummy variables
dummies <- dummyVars(~ ., data = adjusted_heart_df)

# Create the new data set. Is initially in a `list` format. 
dummy_df <- predict(dummies, newdata = adjusted_heart_df)

# Convert the list into a tibble for use
modeling_df <- as_tibble((dummy_df))

# Output the data frame
print(modeling_df)

# A tibble: 910 × 19
     Age  SexF  SexM ChestPainTypeASY ChestPainTypeATA ChestPainTypeNAP
   <dbl> <dbl> <dbl>            <dbl>            <dbl>            <dbl>
 1    40     0     1                0                1                0
 2    49     1     0                0                0                1
 3    37     0     1                0                1                0
 4    48     1     0                1                0                0
 5    54     0     1                0                0                1
 6    39     0     1                0                0                1
 7    45     1     0                0                1                0
 8    54     0     1                0                1                0
 9    37     0     1                1                0                0
10    48     1     0                0                1                0
# ℹ 900 more rows
# ℹ 13 more variables: ChestPainTypeTA <dbl>, RestingBP <dbl>,
#   Cholesterol <dbl>, FastingBS <dbl>, RestingECGLVH <dbl>,
#   RestingECGNormal <dbl>, RestingECGST <dbl>, MaxHR <dbl>,
#   ExerciseAnginaN <dbl>, ExerciseAnginaY <dbl>, Oldpeak <dbl>,
#   HeartDiseaseFct.No <dbl>, HeartDiseaseFct.Yes <dbl>
…
Now that we have a data frame with dummy variables for the variables with factor levels, we can split the data into training and test sets for use when developing our prediction models.

# Remove from the data frame

# HeartDiseaseFct.No is being removed because it is the inverse of the variable 
# HeartDiseaseFct.Yes which we are using as the predicted variable. 

modeling_df <- modeling_df |>
  relocate(starts_with("Heart")) |>
  select(-HeartDiseaseFct.No) 
  
modeling_df

# A tibble: 910 × 18
   HeartDiseaseFct.Yes   Age  SexF  SexM ChestPainTypeASY ChestPainTypeATA
                 <dbl> <dbl> <dbl> <dbl>            <dbl>            <dbl>
 1                   0    40     0     1                0                1
 2                   1    49     1     0                0                0
 3                   0    37     0     1                0                1
 4                   1    48     1     0                1                0
 5                   0    54     0     1                0                0
 6                   0    39     0     1                0                0
 7                   0    45     1     0                0                1
 8                   0    54     0     1                0                1
 9                   1    37     0     1                1                0
10                   0    48     1     0                0                1
# ℹ 900 more rows
# ℹ 12 more variables: ChestPainTypeNAP <dbl>, ChestPainTypeTA <dbl>,
#   RestingBP <dbl>, Cholesterol <dbl>, FastingBS <dbl>, RestingECGLVH <dbl>,
#   RestingECGNormal <dbl>, RestingECGST <dbl>, MaxHR <dbl>,
#   ExerciseAnginaN <dbl>, ExerciseAnginaY <dbl>, Oldpeak <dbl>
…
